{
  "collectionName": "components_service_offer_service_offers",
  "info": {
    "displayName": "ServiceOffer",
    "icon": "check-square"
  },
  "options": {},
  "attributes": {
    "Offer": {
      "type": "enumeration",
      "enum": [
        "servicio básico",
        "pagado",
        "no se ofrece"
      ]
    }
  }
}
